M48
METRIC,TZ
VER,1
FMAT,2
DETECT,ON
ATC,ON
T1C0.6000
T2C0.8890
T3C0.9949
%
T1
X392430Y759460
X264160Y662940
X464820Y609600
X449580Y741680
T2
X185000Y695400
Y720800
Y771600
Y746200
T3
X185000Y670000
M30
